*** Darwin 15x15 ***
Turn = 0.
  012345678901234
0 f..............
1 ...............
2 ...............
3 ...............
4 ....h..........
5 ...............
6 ....t....f.....
7 ....r..........
8 ...............
9 ....r.....t....
0 ...............
1 ...............
2 ...............
3 ...............
4 ..............h

Turn = 2.
  012345678901234
0 f..............
1 ...............
2 ...............
3 ...............
4 ...............
5 ....h..........
6 ....t....f.....
7 ....r..........
8 ....r..........
9 ..........t....
0 ...............
1 ...............
2 ...............
3 ...............
4 ..............h

Turn = 4.
  012345678901234
0 f..............
1 ...............
2 ...............
3 ...............
4 ...............
5 ....t..........
6 ....t....f.....
7 ...r...........
8 ...r...........
9 ..........t....
0 ...............
1 ...............
2 ...............
3 ...............
4 ..............h

Turn = 6.
  012345678901234
0 f..............
1 ...............
2 ...............
3 ...............
4 ...............
5 ....t..........
6 ....t....f.....
7 .r.............
8 .r.............
9 ..........t....
0 ...............
1 ...............
2 ...............
3 ...............
4 ..............h

Turn = 8.
  012345678901234
0 f..............
1 ...............
2 ...............
3 ...............
4 ...............
5 ....t..........
6 ....t....f.....
7 r..............
8 r..............
9 ..........t....
0 ...............
1 ...............
2 ...............
3 ...............
4 ..............h

Turn = 10.
  012345678901234
0 f..............
1 ...............
2 ...............
3 ...............
4 ...............
5 r...t..........
6 r...t....f.....
7 ...............
8 ...............
9 ..........t....
0 ...............
1 ...............
2 ...............
3 ...............
4 ..............h

*** Darwin 4x4 ***
Turn = 0.
  0123
0 rtrt
1 trtr
2 rtrt
3 trtr

Turn = 2.
  0123
0 rrrr
1 tttt
2 ttrt
3 ttrr

Turn = 4.
  0123
0 trrr
1 trtr
2 trrr
3 tttr

Turn = 6.
  0123
0 rrrr
1 trrr
2 tttr
3 tttt

Turn = 8.
  0123
0 rrrr
1 rtrr
2 tttr
3 tttt

Turn = 10.
  0123
0 rrrr
1 rrrr
2 rrrr
3 ttrr

Turn = 12.
  0123
0 rrrr
1 rrrr
2 rrrr
3 rrrr

*** Darwin 13x3 ***
Turn = 0.
  012
0 f.f
1 ...
2 ...
3 ...
4 ...
5 ...
6 f.f
7 ...
8 ...
9 ...
0 ...
1 ...
2 fhf

Turn = 3.
  012
0 f.f
1 ...
2 ...
3 ...
4 ...
5 ...
6 f.f
7 ...
8 ...
9 .h.
0 ...
1 ...
2 f.f

Turn = 6.
  012
0 f.f
1 ...
2 ...
3 ...
4 ...
5 ...
6 fhf
7 ...
8 ...
9 ...
0 ...
1 ...
2 f.f

Turn = 9.
  012
0 f.f
1 ...
2 ...
3 .h.
4 ...
5 ...
6 f.f
7 ...
8 ...
9 ...
0 ...
1 ...
2 f.f

Turn = 12.
  012
0 fhf
1 ...
2 ...
3 ...
4 ...
5 ...
6 f.f
7 ...
8 ...
9 ...
0 ...
1 ...
2 f.f

Turn = 15.
  012
0 fhf
1 ...
2 ...
3 ...
4 ...
5 ...
6 f.f
7 ...
8 ...
9 ...
0 ...
1 ...
2 f.f

*** Darwin 20x20 ***
Turn = 0.
  01234567890123456789
0 r...................
1 ....................
2 ....................
3 ....................
4 ....................
5 ....................
6 ....................
7 ....................
8 ....................
9 ....................
0 ....................
1 ....................
2 ....................
3 ....................
4 ....................
5 ....................
6 ....................
7 ....................
8 ....................
9 ...................r

Turn = 5.
  01234567890123456789
0 ...r................
1 ....................
2 ....................
3 ....................
4 ....................
5 ....................
6 ....................
7 ....................
8 ....................
9 ....................
0 ....................
1 ....................
2 ....................
3 ....................
4 ....................
5 ...................r
6 ....................
7 ....................
8 ....................
9 ....................

Turn = 10.
  01234567890123456789
0 ........r...........
1 ....................
2 ....................
3 ....................
4 ....................
5 ....................
6 ....................
7 ....................
8 ....................
9 ....................
0 ...................r
1 ....................
2 ....................
3 ....................
4 ....................
5 ....................
6 ....................
7 ....................
8 ....................
9 ....................

Turn = 15.
  01234567890123456789
0 .............r......
1 ....................
2 ....................
3 ....................
4 ....................
5 ...................r
6 ....................
7 ....................
8 ....................
9 ....................
0 ....................
1 ....................
2 ....................
3 ....................
4 ....................
5 ....................
6 ....................
7 ....................
8 ....................
9 ....................

Turn = 20.
  01234567890123456789
0 ..................rr
1 ....................
2 ....................
3 ....................
4 ....................
5 ....................
6 ....................
7 ....................
8 ....................
9 ....................
0 ....................
1 ....................
2 ....................
3 ....................
4 ....................
5 ....................
6 ....................
7 ....................
8 ....................
9 ....................

Turn = 25.
  01234567890123456789
0 ....................
1 ....................
2 ....................
3 ...................r
4 ..................r.
5 ....................
6 ....................
7 ....................
8 ....................
9 ....................
0 ....................
1 ....................
2 ....................
3 ....................
4 ....................
5 ....................
6 ....................
7 ....................
8 ....................
9 ....................

Turn = 30.
  01234567890123456789
0 ....................
1 ....................
2 ....................
3 ....................
4 ....................
5 ....................
6 ....................
7 ....................
8 ...................r
9 ..................r.
0 ....................
1 ....................
2 ....................
3 ....................
4 ....................
5 ....................
6 ....................
7 ....................
8 ....................
9 ....................

Turn = 35.
  01234567890123456789
0 ....................
1 ....................
2 ....................
3 ....................
4 ....................
5 ....................
6 ....................
7 ....................
8 ....................
9 ....................
0 ....................
1 ....................
2 ....................
3 ...................r
4 ..................r.
5 ....................
6 ....................
7 ....................
8 ....................
9 ....................

Turn = 40.
  01234567890123456789
0 ....................
1 ....................
2 ....................
3 ....................
4 ....................
5 ....................
6 ....................
7 ....................
8 ....................
9 ....................
0 ....................
1 ....................
2 ....................
3 ....................
4 ....................
5 ....................
6 ....................
7 ....................
8 ...................r
9 ..................r.

*** Darwin 12x10 ***
Turn = 0.
  0123456789
0 .........f
1 ........f.
2 ..........
3 .........r
4 ...t......
5 ......t.f.
6 .f.....r..
7 ..........
8 .........h
9 ........r.
0 ..........
1 ..........

Turn = 3.
  0123456789
0 .........f
1 ........f.
2 ..........
3 ..........
4 ...t......
5 ......ttfr
6 .f.......r
7 ..........
8 ..........
9 .....r....
0 ..........
1 ..........

Turn = 6.
  0123456789
0 .........f
1 ........f.
2 ..........
3 ..........
4 ...t......
5 ......ttt.
6 .f.......r
7 ..........
8 .........r
9 ..r.......
0 ..........
1 ..........

Turn = 9.
  0123456789
0 .........f
1 ........f.
2 ..........
3 ..........
4 ...t......
5 ......ttt.
6 .f........
7 ..........
8 ..........
9 r........r
0 ..........
1 .........r

Turn = 12.
  0123456789
0 .........f
1 ........f.
2 ..........
3 ..........
4 ...t......
5 ......ttt.
6 rf........
7 ..........
8 ..........
9 ..........
0 .........r
1 .......r..

Turn = 15.
  0123456789
0 .........f
1 ........f.
2 ..........
3 r.........
4 ...t......
5 ......ttt.
6 .f........
7 .........r
8 ..........
9 ..........
0 ..........
1 ....r.....

Turn = 18.
  0123456789
0 r........f
1 ........f.
2 ..........
3 ..........
4 ...t.....r
5 ......ttt.
6 .f........
7 ..........
8 ..........
9 ..........
0 ..........
1 .r........

Turn = 21.
  0123456789
0 ..r......f
1 ........fr
2 ..........
3 ..........
4 ...t......
5 ......ttt.
6 .f........
7 ..........
8 ..........
9 ..........
0 r.........
1 ..........

Turn = 24.
  0123456789
0 .....r..r.
1 ........fr
2 ..........
3 ..........
4 ...t......
5 ......ttt.
6 .f........
7 r.........
8 ..........
9 ..........
0 ..........
1 ..........

Turn = 27.
  0123456789
0 .......rr.
1 ......r.f.
2 ..........
3 ..........
4 r..t......
5 ......ttt.
6 .f........
7 ..........
8 ..........
9 ..........
0 ..........
1 ..........

Turn = 30.
  0123456789
0 ....rr....
1 r.......f.
2 ..........
3 ..........
4 ...t..r...
5 ......ttt.
6 .f........
7 ..........
8 ..........
9 ..........
0 ..........
1 ..........

*** Darwin 6x6 ***
Turn = 0.
  012345
0 r.....
1 .r....
2 ..r...
3 ...r..
4 ....r.
5 .....r

Turn = 2.
  012345
0 rrr...
1 ...r..
2 ....r.
3 .....r
4 ......
5 ......

Turn = 4.
  012345
0 r.rrr.
1 .r...r
2 ......
3 ......
4 ......
5 ......

Turn = 6.
  012345
0 .rrr.r
1 ...r..
2 ......
3 .r....
4 ......
5 ......

Turn = 8.
  012345
0 .rr..r
1 ...r..
2 ......
3 ...r..
4 ......
5 .r....

Turn = 10.
  012345
0 r..rr.
1 ......
2 ......
3 ...r..
4 ......
5 r..r..

Turn = 12.
  012345
0 ...r..
1 ......
2 r...r.
3 ......
4 r..r..
5 ..r...

*** Darwin 17x13 ***
Turn = 0.
  0123456789012
0 f........f...
1 ........f....
2 .............
3 .......f.r...
4 ...th........
5 .....rt.f..r.
6 .f..t..r.f...
7 ....r........
8 .........h...
9 ....r...r.t..
0 .....t...f...
1 ...........r.
2 ............t
3 ...r.........
4 ....h........
5 .............
6 r............

Turn = 5.
  0123456789012
0 f....r...f...
1 ........f....
2 ..........r..
3 .......f.....
4 ...t.........
5 ....t.ttrr...
6 .f..t..r.h...
7 ..r..........
8 ...r..r......
9 ...r......tt.
0 .....t...f...
1 r............
2 ............t
3 .............
4 .........h...
5 .............
6 .............

Turn = 10.
  0123456789012
0 f.......rrr..
1 ........f....
2 .............
3 .......f.....
4 ...t.........
5 ...tt.tttt...
6 .f..tt...t...
7 r............
8 .r........t..
9 ..........tt.
0 r....t...f...
1 .............
2 ............t
3 .............
4 ............h
5 .............
6 .............

Turn = 15.
  0123456789012
0 f........r..r
1 ....r........
2 r............
3 .......f.r...
4 ...t.........
5 ...tt.tttt...
6 .f..tt...t...
7 .............
8 ......r...t..
9 ..........tt.
0 .....t...f...
1 .............
2 ............t
3 .............
4 ............h
5 r............
6 .............

Turn = 20.
  0123456789012
0 rrr........r.
1 .............
2 ...........r.
3 .......f.....
4 ...t.......r.
5 ...tt.ttt....
6 .f..tt.t..r..
7 .........r...
8 ..........r..
9 ..........tt.
0 .....t...f...
1 .............
2 ............t
3 .............
4 ............h
5 .............
6 ...r.........

Turn = 25.
  0123456789012
0 ......rr.....
1 ..........r..
2 .............
3 rr.....f.....
4 ...t.........
5 ...tt.ttt....
6 .f..tt.t.....
7 .....t.....rr
8 .............
9 ..........tt.
0 .....t...f..r
1 .............
2 ............t
3 .............
4 ............h
5 .............
6 ........r....

Turn = 30.
  0123456789012
0 ...r........r
1 .............
2 .............
3 .......f.....
4 ...t..r......
5 ...tr..tt....
6 ...rrtrt.....
7 .r...t.......
8 r........rrr.
9 .............
0 .....t...f..r
1 ............r
2 .............
3 ............r
4 ............h
5 .............
6 ............r

Turn = 35.
  0123456789012
0 r...r........
1 .............
2 .............
3 .......f..rrr
4 ...t.........
5 ...t..ttt...r
6 ...ttttt.....
7 .....t.......
8 ....r........
9 .............
0 .....t...f...
1 .......r....r
2 .r...........
3 r............
4 .............
5 ..........r..
6 ..........r..

Turn = 40.
  0123456789012
0 r.........rr.
1 .............
2 r...........r
3 .......f.....
4 ...t.....r...
5 ...t..ttt....
6 ...ttttt....r
7 .....t.......
8 r............
9 .............
0 .....t...f...
1 .....t.......
2 .............
3 .............
4 .............
5 .....r.......
6 rr...r.......

Turn = 45.
  0123456789012
0 ...r......r..
1 ............r
2 ............r
3 .......f.....
4 ...t....t....
5 ...t..ttt..r.
6 ...ttttt.....
7 r....t.......
8 .............
9 .............
0 .....t...f...
1 .....t.......
2 .............
3 r............
4 ...r.........
5 r.r..........
6 ..r..........

Turn = 50.
  0123456789012
0 .......r.....
1 ......r.r....
2 .......r.....
3 .......f.....
4 ...t....t....
5 ...t..ttt....
6 ...ttttt.....
7 .....t.......
8 .............
9 ...r.........
0 ..r..t...f.r.
1 .....t.......
2 r............
3 .............
4 ...r.........
5 .r...........
6 .r...........

Turn = 55.
  0123456789012
0 ..r..........
1 ...r.........
2 .............
3 ...........r.
4 ...t..rtt....
5 ...r.r.tt....
6 .r.rtttt.....
7 ...r.t.......
8 .............
9 .............
0 .....t...f...
1 .....t.......
2 .............
3 .............
4 ........r....
5 ......r....r.
6 r.....r......

Turn = 60.
  0123456789012
0 rr...........
1 ......r......
2 .............
3 .............
4 ...t..r......
5 r..t...rr....
6 ...ttttt.r..r
7 ....tt.......
8 .............
9 r............
0 .....t...f...
1 .....t.......
2 .............
3 .............
4 ............r
5 ...........r.
6 .....r...rr..

Turn = 65.
  0123456789012
0 r..r.r.......
1 ....r........
2 .............
3 ...r.........
4 ....r........
5 ...tt.......r
6 ...ttttt....r
7 ....tt.......
8 .............
9 .............
0 .....t...f...
1 .....t.....rr
2 .........rr..
3 .............
4 r............
5 .............
6 ..........rr.

Turn = 70.
  0123456789012
0 .r...........
1 r.r..........
2 ......r......
3 ....r........
4 ....t........
5 ...tt...r....
6 ...ttttrr..r.
7 ....tt....r..
8 .........r...
9 .............
0 .....tr......
1 .....t.....r.
2 ..........r..
3 .............
4 .............
5 .............
6 ..r.........r

Turn = 75.
  0123456789012
0 .....r.......
1 ...........r.
2 ........r.r..
3 ....r....rr..
4 ....t........
5 r..trt.......
6 ..tttttt...r.
7 ....tr....r..
8 .....r.......
9 .............
0 .............
1 .....t.......
2 .............
3 ......r.....r
4 .............
5 .............
6 .......r.....

Turn = 80.
  0123456789012
0 .........r...
1 ........r.rrr
2 .......r..r.r
3 .............
4 ...r.....r...
5 ...ttt.......
6 ..tttttt.....
7 .....t.......
8 .........r..r
9 .............
0 r...r........
1 .....t.......
2 .............
3 .............
4 .............
5 .............
6 .......r....r

Turn = 85.
  0123456789012
0 ............r
1 ......r.r....
2 ............r
3 r...........r
4 .............
5 ...ttt.r.r.rr
6 ..tttttrr....
7 .....t.......
8 .............
9 ............r
0 .............
1 .....t.......
2 .............
3 .............
4 .............
5 r...r........
6 ..........rr.

Turn = 90.
  0123456789012
0 r......r.....
1 .r.r.........
2 ............r
3 ..........r..
4 .............
5 ...ttt......r
6 ..tttttt.....
7 .....t.......
8 .............
9 .............
0 .........r.rr
1 .....t..r....
2 .............
3 ............r
4 r...........r
5 .............
6 .......rr....

Turn = 95.
  0123456789012
0 rrr..........
1 .............
2 r............
3 .....r.......
4 ..........r..
5 ...ttt...r...
6 ..tttttt.....
7 .....t.......
8 .............
9 r............
0 .............
1 .....t.......
2 .............
3 ........rr..r
4 ......rr.....
5 ...........rr
6 ....r........

Turn = 100.
  0123456789012
0 .............
1 .............
2 ...r.........
3 .............
4 rrr..r.......
5 r..tttt......
6 r.tttttt.....
7 .....t.......
8 .............
9 .............
0 .............
1 .....t.......
2 .............
3 ...r.........
4 .rr........rr
5 .............
6 r.........r.r

*** Darwin 8x10 ***
Turn = 0.
  0123456789
0 ..........
1 ..........
2 ..........
3 .........r
4 ..........
5 ..........
6 .........t
7 ..........

Turn = 50.
  0123456789
0 ..........
1 r.........
2 ..........
3 ..........
4 ..........
5 ..........
6 ..........
7 r.........

Turn = 100.
  0123456789
0 ..........
1 ..........
2 ..........
3 ..........
4 ..........
5 ..r.......
6 .r........
7 ..........

*** Darwin 9x10 ***
Turn = 0.
  0123456789
0 ..........
1 ..........
2 .t....t.h.
3 ....r..fr.
4 ...t......
5 ..........
6 .th....h..
7 ..........
8 .f.......f

Turn = 30.
  0123456789
0 r.........
1 .r........
2 .tt...t...
3 .t.....f..
4 .t.....h..
5 ..........
6 ..tt......
7 ..........
8 ...r......

Turn = 60.
  0123456789
0 ..........
1 .........r
2 ..t...t...
3 .t.....f..
4 .t.....h..
5 ..........
6 ..tt......
7 ..t.......
8 r.....r...

Turn = 90.
  0123456789
0 .......r..
1 ..........
2 ..t...t...
3 rtt....fr.
4 .tt....h..
5 .........r
6 ..........
7 ..........
8 ..........

*** Darwin 1x100 ***
Turn = 0.
  0123456789012345678901234567890123456789012345678901234567890123456789012345678901234567890123456789
0 r........................f........................r........................h.......................f

Turn = 20.
  0123456789012345678901234567890123456789012345678901234567890123456789012345678901234567890123456789
0 ...................r.....f...........................................r.........................h...f

Turn = 40.
  0123456789012345678901234567890123456789012345678901234567890123456789012345678901234567890123456789
0 ............rr...........................................................................r........hf

Turn = 60.
  0123456789012345678901234567890123456789012345678901234567890123456789012345678901234567890123456789
0 r......r................................................................................r.........rr

Turn = 80.
  0123456789012345678901234567890123456789012345678901234567890123456789012345678901234567890123456789
0 ..................r........r........................................r..........r.........r..........

Turn = 100.
  0123456789012345678901234567890123456789012345678901234567890123456789012345678901234567890123456789
0 ......................................r........rr..........r.........r..............................
